SUBS,NAME,ADDRESS,CITY,PHONE_NO,ATLTERNATIVE_NO1,ALTERNATIVE_NO2,ALTERNATIVE_PHONE3,PREVIOUS_PACKAGE,PREVIOUS_PACKAGE_SPEED,CURRENT_PACKAGE,CURRENT_PACKAGE_SPEED,PAYMENT_BY,CYCLE,AMOUNT_DUE,AMOUNT_IN,AMOUNT_TO_PAY,Loyalty ponts,Discount
23,MEMBER 1,RUNDA,NAI,345654654,47575685,5685785,55445,JI,23,AD,56,3/13/2017,3/13/2017,57567,466,466,150,
544,MEMBER 2,SOUTH B,KSM,3465547,5858,58585,55,G1,34,SD,66,3/14/2017,3/14/2017,567,346,346,120,
7758,MEMBER 3,GARDEN ESTATE,MOMBASA,7567858,8585,85854,5454,KL,10,LW,78,3/15/2017,3/15/2017,457,654,654,600,
